{
	"image_name": "msdemo/zookeeper",
        "service_name": "zookeeper",
        "p":["31081:2181"],
        "selector":["name=zookeeper"],
        "namespace":"/msdemo/zookeeper",
        "replicas":"1",
	"run": [
             {
		"name":"zookeeper",
		"p":["2181","2888","3888"],
                "namespace":"/msdemo/zookeeper/0"
	     }
        ]
}
